Invariance Test for Statistical Analysis • invariance
…
Installation

You can install the development version of invariance like so:

# install.packages("devtools")
devtools::install_github("Reckziegel/CMA")

Example

library(invariance)
library(tibble)

x <- as_tibble(diff(log(EuStockMarkets)))
x
#> # A tibble: 1,859 x 4
#>         DAX      SMI       CAC      FTSE
#>       <dbl>    <dbl>     <dbl>     <dbl>
#>  1 -0.00933  0.00618 -0.0127    0.00677 
#>  2 -0.00442 -0.00588 -0.0187   -0.00489 
#>  3  0.00900  0.00327 -0.00578   0.00903 
#>  4 -0.00178  0.00148  0.00874   0.00577 
#>  5 -0.00468 -0.00893 -0.00512  -0.00723 
#>  6  0.0124   0.00674  0.0117    0.00852 
#>  7  0.00576  0.0122   0.0131    0.00821 
#>  8 -0.00287 -0.00359 -0.00194   0.000837
#>  9  0.00635  0.0110   0.000171 -0.00523 
#> 10  0.00118  0.00436  0.00313   0.0140  
#> # ... with 1,849 more rows
…
